verification.vcd
$date
	Sat Jan 17 13:31:41 2026
$end
$version
	Icarus Verilog
$end
$timescale
	1ps
$end
$scope module verification_tb $end
$var wire 1 ! trigger $end
$var reg 1 " clk $end
$var reg 8 # energy [7:0] $end
$var reg 8 $ isol [7:0] $end
$var reg 1 % rst $end
$var integer 32 & correct [31:0] $end
$var integer 32 ' false_negatives [31:0] $end
$var integer 32 ( false_positives [31:0] $end
$var integer 32 ) file [31:0] $end
$var integer 32 * input_eng [31:0] $end
$var integer 32 + input_iso [31:0] $end
$var integer 32 , label_exp [31:0] $end
$var integer 32 - status [31:0] $end
$var integer 32 . total [31:0] $end
$scope module uut $end
$var wire 1 " clk $end
$var wire 8 / energy [7:0] $end
$var wire 8 0 isol [7:0] $end
$var wire 1 % rst $end
$var wire 1 ! trigger $end
$var wire 16 1 l1_n3 [15:0] $end
$var wire 16 2 l1_n2 [15:0] $end
$var wire 16 3 l1_n1 [15:0] $end
$var wire 32 4 final_score [31:0] $end
$scope module L1 $end
$var wire 8 5 b1 [7:0] $end
$var wire 8 6 b2 [7:0] $end
$var wire 8 7 b3 [7:0] $end
$var wire 1 " clk $end
$var wire 8 8 input_energy [7:0] $end
$var wire 8 9 input_isol [7:0] $end
$var wire 1 % rst $end
$var wire 8 : w1_1 [7:0] $end
$var wire 8 ; w1_2 [7:0] $end
$var wire 8 < w2_1 [7:0] $end
$var wire 8 = w2_2 [7:0] $end
$var wire 8 > w3_1 [7:0] $end
$var wire 8 ? w3_2 [7:0] $end
$var wire 16 @ n3_out [15:0] $end
$var wire 16 A n2_out [15:0] $end
$var wire 16 B n1_out [15:0] $end
$var parameter 8 C L1_N1_B $end
$var parameter 8 D L1_N1_W1 $end
$var parameter 8 E L1_N1_W2 $end
$var parameter 8 F L1_N2_B $end
$var parameter 8 G L1_N2_W1 $end
$var parameter 8 H L1_N2_W2 $end
$var parameter 8 I L1_N3_B $end
$var parameter 8 J L1_N3_W1 $end
$var parameter 8 K L1_N3_W2 $end
$var parameter 8 L L2_B $end
$var parameter 8 M L2_W1 $end
$var parameter 8 N L2_W2 $end
$var parameter 8 O L2_W3 $end
$scope module N1 $end
$var wire 8 P b [7:0] $end
$var wire 1 " clk $end
$var wire 1 % rst $end
$var wire 8 Q w1 [7:0] $end
$var wire 8 R w2 [7:0] $end
$var wire 8 S x1 [7:0] $end
$var wire 8 T x2 [7:0] $end
$var reg 16 U mult1 [15:0] $end
$var reg 16 V mult2 [15:0] $end
$var reg 16 W sum_raw [15:0] $end
$var reg 16 X y [15:0] $end
$upscope $end
$scope module N2 $end
$var wire 8 Y b [7:0] $end
$var wire 1 " clk $end
$var wire 1 % rst $end
$var wire 8 Z w1 [7:0] $end
$var wire 8 [ w2 [7:0] $end
$var wire 8 \ x1 [7:0] $end
$var wire 8 ] x2 [7:0] $end
$var reg 16 ^ mult1 [15:0] $end
$var reg 16 _ mult2 [15:0] $end
$var reg 16 ` sum_raw [15:0] $end
$var reg 16 a y [15:0] $end
$upscope $end
$scope module N3 $end
$var wire 8 b b [7:0] $end
$var wire 1 " clk $end
$var wire 1 % rst $end
$var wire 8 c w1 [7:0] $end
$var wire 8 d w2 [7:0] $end
$var wire 8 e x1 [7:0] $end
$var wire 8 f x2 [7:0] $end
$var reg 16 g mult1 [15:0] $end
$var reg 16 h mult2 [15:0] $end
$var reg 16 i sum_raw [15:0] $end
$var reg 16 j y [15:0] $end
$upscope $end
$upscope $end
$scope module L2 $end
$var wire 8 k b [7:0] $end
$var wire 16 l n1 [15:0] $end
$var wire 16 m n2 [15:0] $end
$var wire 16 n n3 [15:0] $end
$var wire 8 o w1 [7:0] $end
$var wire 8 p w2 [7:0] $end
$var wire 8 q w3 [7:0] $end
$var parameter 8 r L1_N1_B $end
$var parameter 8 s L1_N1_W1 $end
$var parameter 8 t L1_N1_W2 $end
$var parameter 8 u L1_N2_B $end
$var parameter 8 v L1_N2_W1 $end
$var parameter 8 w L1_N2_W2 $end
$var parameter 8 x L1_N3_B $end
$var parameter 8 y L1_N3_W1 $end
$var parameter 8 z L1_N3_W2 $end
$var parameter 8 { L2_B $end
$var parameter 8 | L2_W1 $end
$var parameter 8 } L2_W2 $end
$var parameter 8 ~ L2_W3 $end
$var reg 32 !" score [31:0] $end
$var reg 1 ! trigger $end
$upscope $end
$upscope $end
$upscope $end
$enddefinitions $end
$comment Show the parameter values. $end
$dumpall
b1111111 ~
b10000000 }
b0 |
b11100011 {
b1111111 z
b1111111 y
b10100011 x
b10000000 w
b10010101 v
b1111111 u
b0 t
b0 s
b10000110 r
b1111111 O
b10000000 N
b0 M
b11100011 L
b1111111 K
b1111111 J
b10100011 I
b10000000 H
b10010101 G
b1111111 F
b0 E
b0 D
b10000110 C
$end
#0
$dumpvars
b11111111111111111111111111100011 !"
b1111111 q
b10000000 p
b0 o
b0 n
b0 m
b0 l
b11100011 k
b0 j
b0 i
b0 h
b0 g
b0 f
b0 e
b1111111 d
b1111111 c
b10100011 b
b0 a
b0 `
b0 _
b0 ^
b0 ]
b0 \
b10000000 [
b10010101 Z
b1111111 Y
b0 X
b0 W
b0 V
b0 U
b0 T
b0 S
b0 R
b0 Q
b10000110 P
b0 B
b0 A
b0 @
b1111111 ?
b1111111 >
b10000000 =
b10010101 <
b0 ;
b0 :
b0 9
b0 8
b10100011 7
b1111111 6
b10000110 5
b11111111111111111111111111100011 4
b0 3
b0 2
b0 1
b0 0
b0 /
b0 .
bx -
bx ,
bx +
bx *
b10000000000000000000000000000011 )
b0 (
b0 '
b0 &
1%
b0 $
b0 #
0"
0!
$end
#5000
1"
#10000
0"
#15000
1"
#20000
0"
b11100 $
b11100 0
b11100 9
b11100 T
b11100 ]
b11100 f
b1101 #
b1101 /
b1101 8
b1101 S
b1101 \
b1101 e
b11 -
b0 ,
b11100 +
b1101 *
0%
#25000
b1111111110100011 i
b110111100100 h
b11001110011 g
b1111111 `
b1111001000000000 _
b1111101010010001 ^
b1111111110000110 W
1"
#30000
0"
#35000
b11111111111111111100000001100011 4
b11111111111111111100000001100011 !"
b1111111 2
b1111111 A
b1111111 a
b1111111 m
b1110110100010000 `
b1001111111010 i
1"
#40000
0"
b1001 $
b1001 0
b1001 9
b1001 T
b1001 ]
b1001 f
b10000 #
b10000 /
b10000 8
b10000 S
b10000 \
b10000 e
b1001 +
b10000 *
b1 .
b1 &
#45000
1!
b10011110100011101001 4
b10011110100011101001 !"
b1001111111010 1
b1001111111010 @
b1001111111010 j
b1001111111010 n
b10001110111 h
b11111110000 g
b0 2
b0 A
b0 a
b0 m
b1111101110000000 _
b1111100101010000 ^
1"
#50000
0"
#55000
b1111010101001111 `
b110000001010 i
1"
#60000
0"
b11010 $
b11010 0
b11010 9
b11010 T
b11010 ]
b11010 f
b101000 #
b101000 /
b101000 8
b101000 S
b101000 \
b101000 e
b11010 +
b101000 *
b10 .
b1 (
#65000
b1011111100011011001 4
b1011111100011011001 !"
b110000001010 1
b110000001010 @
b110000001010 j
b110000001010 n
b110011100110 h
b1001111011000 g
b1111001100000000 _
b1110111101001000 ^
1"
#70000
0"
#75000
b1110001011000111 `
b10000001100001 i
1"
#80000
0"
b101001 $
b101001 0
b101001 9
b101001 T
b101001 ]
b101001 f
b10011 #
b10011 /
b10011 8
b10011 S
b10011 \
b10011 e
b101001 +
b10011 *
b11 .
b10 (
#85000
b100000001000000000010 4
b100000001000000000010 !"
b10000001100001 1
b10000001100001 @
b10000001100001 j
b10000001100001 n
b1010001010111 h
b100101101101 g
b1110101110000000 _
b1111100000001111 ^
1"
#90000
0"
#95000
b1110010000001110 `
b1110101100111 i
1"
#100000
0"
b11110 $
b11110 0
b11110 9
b11110 T
b11110 ]
b11110 f
b11 #
b11 /
b11 8
b11 S
b11 \
b11 e
b11110 +
b11 *
b100 .
b11 (
#105000
b11101001010111111100 4
b11101001010111111100 !"
b1110101100111 1
b1110101100111 @
b1110101100111 j
b1110101100111 n
b111011100010 h
b101111101 g
b1111000100000000 _
b1111111010111111 ^
1"
#110000
0"
#115000
b1111000000111110 `
b1000000000010 i
1"
#120000
0"
b10000 $
b10000 0
b10000 9
b10000 T
b10000 ]
b10000 f
b10001 #
b10001 /
b10001 8
b10001 S
b10001 \
b10001 e
b10000 +
b10001 *
b101 .
b100 (
#125000
b1111111000011100001 4
b1111111000011100001 !"
b1000000000010 1
b1000000000010 @
b1000000000010 j
b1000000000010 n
b11111110000 h
b100001101111 g
b1111100000000000 _
b1111100011100101 ^
1"
#130000
0"
#135000
b1111000101100100 `
1"
#140000
0"
b1001 $
b1001 0
b1001 9
b1001 T
b1001 ]
b1001 f
b10100 #
b10100 /
b10100 8
b10100 S
b10100 \
b10100 e
b1001 +
b10100 *
b110 .
b101 (
#145000
b10001110111 h
b100111101100 g
b1111101110000000 _
b1111011110100100 ^
1"
#150000
0"
#155000
b1111001110100011 `
b111000000110 i
1"
#160000
0"
b11101 $
b11101 0
b11101 9
b11101 T
b11101 ]
b11101 f
b11010 #
b11010 /
b11010 8
b11010 S
b11010 \
b11010 e
b11101 +
b11010 *
b111 .
b110 (
#165000
b1101111010011011101 4
b1101111010011011101 !"
b111000000110 1
b111000000110 @
b111000000110 j
b111000000110 n
b111001100011 h
b110011100110 g
b1111000110000000 _
b1111010100100010 ^
1"
#170000
0"
#175000
b1110011100100001 `
b1101011101100 i
1"
#180000
0"
b111 $
b111 0
b111 9
b111 T
b111 ]
b111 f
b11100 #
b11100 /
b11100 8
b11100 S
b11100 \
b11100 e
b111 +
b11100 *
b1000 .
b111 (
#185000
b11010101101011110111 4
b11010101101011110111 !"
b1101011101100 1
b1101011101100 @
b1101011101100 j
b1101011101100 n
b1101111001 h
b110111100100 g
b1111110010000000 _
b1111010001001100 ^
1"
#190000
0"
#195000
b1111000101001011 `
b1000100000000 i
1"
#200000
0"
b10100 $
b10100 0
b10100 9
b10100 T
b10100 ]
b10100 f
b101000 #
b101000 /
b101000 8
b101000 S
b101000 \
b101000 e
b10100 +
b101000 *
b1001 .
b1000 (
#205000
b10000110111011100011 4
b10000110111011100011 !"
b1000100000000 1
b1000100000000 @
b1000100000000 j
b1000100000000 n
b100111101100 h
b1001111011000 g
b1111011000000000 _
b1110111101001000 ^
1"
#210000
0"
#215000
b1110010111000111 `
b1110101100111 i
1"
#220000
0"
b11011 $
b11011 0
b11011 9
b11011 T
b11011 ]
b11011 f
b10110 #
b10110 /
b10110 8
b10110 S
b10110 \
b10110 e
b11011 +
b10110 *
b1010 .
b1001 (
#225000
b11101001010111111100 4
b11101001010111111100 !"
b1110101100111 1
b1110101100111 @
b1110101100111 j
b1110101100111 n
b110101100101 h
b101011101010 g
b1111001010000000 _
b1111011011001110 ^
1"
#230000
0"
#235000
b1110100111001101 `
b1011111110010 i
1"
#240000
0"
b1010 $
b1010 0
b1010 9
b1010 T
b1010 ]
b1010 f
b10011 #
b10011 /
b10011 8
b10011 S
b10011 \
b10011 e
b1010 +
b10011 *
b1011 .
b1010 (
#245000
b10111110000011110001 4
b10111110000011110001 !"
b1011111110010 1
b1011111110010 @
b1011111110010 j
b1011111110010 n
b10011110110 h
b100101101101 g
b1111101100000000 _
b1111100000001111 ^
1"
#250000
0"
#255000
b1111001110001110 `
b111000000110 i
1"
#260000
0"
b1001 $
b1001 0
b1001 9
b1001 T
b1001 ]
b1001 f
b11011 #
b11011 /
b11011 8
b11011 S
b11011 \
b11011 e
b1001 +
b11011 *
b1100 .
b1011 (
#265000
b1101111010011011101 4
b1101111010011011101 !"
b111000000110 1
b111000000110 @
b111000000110 j
b111000000110 n
b10001110111 h
b110101100101 g
b1111101110000000 _
b1111010010110111 ^
1"
#270000
0"
#275000
b1111000010110110 `
b1000101111111 i
1"
#280000
0"
b110 $
b110 0
b110 9
b110 T
b110 ]
b110 f
b11110 #
b11110 /
b11110 8
b11110 S
b11110 \
b11110 e
b110 +
b11110 *
b1101 .
b1100 (
#285000
b10001010110111100100 4
b10001010110111100100 !"
b1000101111111 1
b1000101111111 @
b1000101111111 j
b1000101111111 n
b1011111010 h
b111011100010 g
b1111110100000000 _
b1111001101110110 ^
1"
#290000
0"
#295000
b1111000011110101 `
1"
#300000
0"
b100100 $
b100100 0
b100100 9
b100100 T
b100100 ]
b100100 f
b10010 #
b10010 /
b10010 8
b10010 S
b10010 \
b10010 e
b100100 +
b10010 *
b1110 .
b1101 (
#305000
b1000111011100 h
b100011101110 g
b1110111000000000 _
b1111100001111010 ^
1"
#310000
0"
#315000
b1110011011111001 `
b1101001101101 i
1"
#320000
0"
b100101 $
b100101 0
b100101 9
b100101 T
b100101 ]
b100101 f
b100 #
b100 /
b100 8
b100 S
b100 \
b100 e
b100101 +
b100 *
b1111 .
b1110 (
#325000
b11010001101111110110 4
b11010001101111110110 !"
b1101001101101 1
b1101001101101 @
b1101001101101 j
b1101001101101 n
b1001001011011 h
b111111100 g
b1110110110000000 _
b1111111001010100 ^
1"
#330000
0"
#335000
b1110110001010011 `
b1001111111010 i
1"
#340000
0"
b10100 #
b10100 /
b10100 8
b10100 S
b10100 \
b10100 e
b10100 *
b10000 .
b1111 (
#345000
b10011110100011101001 4
b10011110100011101001 !"
b1001111111010 1
b1001111111010 @
b1001111111010 j
b1001111111010 n
b100111101100 g
b1111011110100100 ^
1"
#350000
0"
#355000
b1110010110100011 `
b1101111101010 i
1"
#360000
0"
b100110 $
b100110 0
b100110 9
b100110 T
b100110 ]
b100110 f
b100110 #
b100110 /
b100110 8
b100110 S
b100110 \
b100110 e
b100110 +
b100110 *
b10001 .
b10000 (
#365000
b11011101100011111001 4
b11011101100011111001 !"
b1101111101010 1
b1101111101010 @
b1101111101010 j
b1101111101010 n
b1001011011010 h
b1001011011010 g
b1110110100000000 _
b1111000000011110 ^
1"
#370000
0"
#375000
b1101110110011101 `
b10010101010111 i
1"
#380000
0"
b1101 $
b1101 0
b1101 9
b1101 T
b1101 ]
b1101 f
b11010 #
b11010 /
b11010 8
b11010 S
b11010 \
b11010 e
b1101 +
b11010 *
b10010 .
b10001 (
#385000
b100101000011000001100 4
b100101000011000001100 !"
b10010101010111 1
b10010101010111 @
b10010101010111 j
b10010101010111 n
b11001110011 h
b110011100110 g
b1111100110000000 _
b1111010100100010 ^
1"
#390000
0"
#395000
b1110111100100001 `
b1001011111100 i
1"
#400000
0"
b1 $
b1 0
b1 9
b1 T
b1 ]
b1 f
b101011 #
b101011 /
b101011 8
b101011 S
b101011 \
b101011 e
b1 +
b101011 *
b10011 .
b10010 (
#405000
b10010110101011100111 4
b10010110101011100111 !"
b1001011111100 1
b1001011111100 @
b1001011111100 j
b1001011111100 n
b1111111 h
b1010101010101 g
b1111111110000000 _
b1110111000000111 ^
1"
#410000
0"
#415000
b1110111000000110 `
b1010101110111 i
1"
#420000
0"
b100101 $
b100101 0
b100101 9
b100101 T
b100101 ]
b100101 f
b100001 #
b100001 /
b100001 8
b100001 S
b100001 \
b100001 e
b100101 +
b100001 *
b10100 .
b10011 (
#425000
b10101010010111101100 4
b10101010010111101100 !"
b1010101110111 1
b1010101110111 @
b1010101110111 j
b1010101110111 n
b1001001011011 h
b1000001011111 g
b1110110110000000 _
b1111001000110101 ^
1"
#430000
0"
#435000
b1110000000110100 `
b10001001011101 i
1"
#440000
0"
b11101 $
b11101 0
b11101 9
b11101 T
b11101 ]
b11101 f
b10011 #
b10011 /
b10011 8
b10011 S
b10011 \
b10011 e
b11101 +
b10011 *
b10101 .
b10100 (
#445000
b100010000110000000110 4
b100010000110000000110 !"
b10001001011101 1
b10001001011101 @
b10001001011101 j
b10001001011101 n
b111001100011 h
b100101101101 g
b1111000110000000 _
b1111100000001111 ^
1"
#450000
0"
#455000
b1110101000001110 `
b1011101110011 i
1"
#460000
0"
b11100 $
b11100 0
b11100 9
b11100 T
b11100 ]
b11100 f
b101110 #
b101110 /
b101110 8
b101110 S
b101110 \
b101110 e
b11100 +
b101110 *
b10110 .
b10101 (
#465000
b10111010000111110000 4
b10111010000111110000 !"
b1011101110011 1
b1011101110011 @
b1011101110011 j
b1011101110011 n
b110111100100 h
b1011011010010 g
b1111001000000000 _
b1110110011000110 ^
1"
#470000
0"
#475000
b1101111101000101 `
b10010001011001 i
1"
#480000
0"
b1001 $
b1001 0
b1001 9
b1001 T
b1001 ]
b1001 f
b1111 #
b1111 /
b1111 8
b1111 S
b1111 \
b1111 e
b1001 +
b1111 *
b10111 .
b10110 (
#485000
b100100000100000001010 4
b100100000100000001010 !"
b10010001011001 1
b10010001011001 @
b10010001011001 j
b10010001011001 n
b10001110111 h
b11101110001 g
b1111101110000000 _
b1111100110111011 ^
1"
#490000
0"
#495000
b1111010110111010 `
b101110001011 i
1"
#500000
0"
b10101 $
b10101 0
b10101 9
b10101 T
b10101 ]
b10101 f
b100 #
b100 /
b100 8
b100 S
b100 \
b100 e
b10101 +
b100 *
b11000 .
b10111 (
#505000
b1011011100111011000 4
b1011011100111011000 !"
b101110001011 1
b101110001011 @
b101110001011 j
b101110001011 n
b101001101011 h
b111111100 g
b1111010110000000 _
b1111111001010100 ^
1"
#510000
0"
#515000
b1111010001010011 `
b110000001010 i
1"
#520000
0"
b11111 #
b11111 /
b11111 8
b11111 S
b11111 \
b11111 e
b11111 *
b11001 .
b11000 (
#525000
b1011111100011011001 4
b1011111100011011001 !"
b110000001010 1
b110000001010 @
b110000001010 j
b110000001010 n
b111101100001 g
b1111001100001011 ^
1"
#530000
0"
#535000
b1110100100001010 `
b1100101101111 i
1"
#540000
0"
b10011 $
b10011 0
b10011 9
b10011 T
b10011 ]
b10011 f
b10000 #
b10000 /
b10000 8
b10000 S
b10000 \
b10000 e
b10011 +
b10000 *
b11010 .
b11001 (
#545000
b11001001110111110100 4
b11001001110111110100 !"
b1100101101111 1
b1100101101111 @
b1100101101111 j
b1100101101111 n
b100101101101 h
b11111110000 g
b1111011010000000 _
b1111100101010000 ^
1"
#550000
0"
#555000
b1111000001001111 `
b1000100000000 i
1"
#560000
0"
b1011 $
b1011 0
b1011 9
b1011 T
b1011 ]
b1011 f
b11010 #
b11010 /
b11010 8
b11010 S
b11010 \
b11010 e
b1011 +
b11010 *
b11011 .
b11010 (
#565000
b10000110111011100011 4
b10000110111011100011 !"
b1000100000000 1
b1000100000000 @
b1000100000000 j
b1000100000000 n
b10101110101 h
b110011100110 g
b1111101010000000 _
b1111010100100010 ^
1"
#570000
0"
#575000
b1111000000100001 `
b1000111111110 i
1"
#580000
0"
b1 $
b1 0
b1 9
b1 T
b1 ]
b1 f
b1100 #
b1100 /
b1100 8
b1100 S
b1100 \
b1100 e
b1 +
b1100 *
b11100 .
b11011 (
#585000
b10001110110011100101 4
b10001110110011100101 !"
b1000111111110 1
b1000111111110 @
b1000111111110 j
b1000111111110 n
b1111111 h
b10111110100 g
b1111111110000000 _
b1111101011111100 ^
1"
#590000
0"
#595000
b1111101011111011 `
b11000010110 i
1"
#600000
0"
b1100 $
b1100 0
b1100 9
b1100 T
b1100 ]
b1100 f
b11011 #
b11011 /
b11011 8
b11011 S
b11011 \
b11011 e
b1100 +
b11011 *
b11101 .
b11100 (
#605000
b110000010011001101 4
b110000010011001101 !"
b11000010110 1
b11000010110 @
b11000010110 j
b11000010110 n
b10111110100 h
b110101100101 g
b1111101000000000 _
b1111010010110111 ^
1"
#610000
0"
#615000
b1110111100110110 `
b1001011111100 i
1"
#620000
0"
b11111000 $
b11111000 0
b11111000 9
b11111000 T
b11111000 ]
b11111000 f
b100001 #
b100001 /
b100001 8
b100001 S
b100001 \
b100001 e
b11111000 +
b100001 *
b11110 .
b11101 (
#625000
b10010110101011100111 4
b10010110101011100111 !"
b1001011111100 1
b1001011111100 @
b1001011111100 j
b1001011111100 n
b1111110000001000 h
b1000001011111 g
b10000000000 _
b1111001000110101 ^
1"
#630000
0"
#635000
b1111011010110100 `
b110000001010 i
1"
#640000
0"
b10000 $
b10000 0
b10000 9
b10000 T
b10000 ]
b10000 f
b100011 #
b100011 /
b100011 8
b100011 S
b100011 \
b100011 e
b10000 +
b100011 *
b11111 .
b11110 (
#645000
b1011111100011011001 4
b1011111100011011001 !"
b110000001010 1
b110000001010 @
b110000001010 j
b110000001010 n
b11111110000 h
b1000101011101 g
b1111100000000000 _
b1111000101011111 ^
1"
#650000
0"
#655000
b1110100111011110 `
b1100011110000 i
1"
#660000
0"
b1110 $
b1110 0
b1110 9
b1110 T
b1110 ]
b1110 f
b1011 #
b1011 /
b1011 8
b1011 S
b1011 \
b1011 e
b1110 +
b1011 *
b100000 .
b11111 (
#665000
b11000101111011110011 4
b11000101111011110011 !"
b1100011110000 1
b1100011110000 @
b1100011110000 j
b1100011110000 n
b11011110010 h
b10101110101 g
b1111100100000000 _
b1111101101100111 ^
1"
#670000
0"
#675000
b1111010011100110 `
b110000001010 i
1"
#680000
0"
b1000 $
b1000 0
b1000 9
b1000 T
b1000 ]
b1000 f
b1000 #
b1000 /
b1000 8
b1000 S
b1000 \
b1000 e
b1000 +
b1000 *
b100001 .
b100000 (
#685000
b1011111100011011001 4
b1011111100011011001 !"
b110000001010 1
b110000001010 @
b110000001010 j
b110000001010 n
b1111111000 h
b1111111000 g
b1111110000000000 _
b1111110010101000 ^
1"
#690000
0"
#695000
b1111100100100111 `
b11110010011 i
1"
#700000
0"
b11000 $
b11000 0
b11000 9
b11000 T
b11000 ]
b11000 f
b100000 #
b100000 /
b100000 8
b100000 S
b100000 \
b100000 e
b11000 +
b100000 *
b100010 .
b100001 (
#705000
b111100000111010000 4
b111100000111010000 !"
b11110010011 1
b11110010011 @
b11110010011 j
b11110010011 n
b101111101000 h
b111111100000 g
b1111010000000000 _
b1111001010100000 ^
1"
#710000
0"
#715000
b1110011100011111 `
b1101101101011 i
1"
#720000
0"
b10000 $
b10000 0
b10000 9
b10000 T
b10000 ]
b10000 f
b10101 #
b10101 /
b10101 8
b10101 S
b10101 \
b10101 e
b10000 +
b10101 *
b100011 .
b100010 (
#725000
b11011001100111111000 4
b11011001100111111000 !"
b1101101101011 1
b1101101101011 @
b1101101101011 j
b1101101101011 n
b11111110000 h
b101001101011 g
b1111100000000000 _
b1111011100111001 ^
1"
#730000
0"
#735000
b1110111110111000 `
b1000111111110 i
1"
#740000
0"
b10001 $
b10001 0
b10001 9
b10001 T
b10001 ]
b10001 f
b10011 #
b10011 /
b10011 8
b10011 S
b10011 \
b10011 e
b10001 +
b10011 *
b100100 .
b100011 (
#745000
b10001110110011100101 4
b10001110110011100101 !"
b1000111111110 1
b1000111111110 @
b1000111111110 j
b1000111111110 n
b100001101111 h
b100101101101 g
b1111011110000000 _
b1111100000001111 ^
1"
#750000
0"
#755000
b1111000000001110 `
b1000101111111 i
1"
#760000
0"
b100010 $
b100010 0
b100010 9
b100010 T
b100010 ]
b100010 f
b11001 #
b11001 /
b11001 8
b11001 S
b11001 \
b11001 e
b100010 +
b11001 *
b100101 .
b100100 (
#765000
b10001010110111100100 4
b10001010110111100100 !"
b1000101111111 1
b1000101111111 @
b1000101111111 j
b1000101111111 n
b1000011011110 h
b110001100111 g
b1110111100000000 _
b1111010110001101 ^
1"
#770000
0"
#775000
b1110010100001100 `
b1110011101000 i
1"
#780000
0"
b10001 $
b10001 0
b10001 9
b10001 T
b10001 ]
b10001 f
b11000 #
b11000 /
b11000 8
b11000 S
b11000 \
b11000 e
b10001 +
b11000 *
b100110 .
b100101 (
#785000
b11100101011011111011 4
b11100101011011111011 !"
b1110011101000 1
b1110011101000 @
b1110011101000 j
b1110011101000 n
b100001101111 h
b101111101000 g
b1111011110000000 _
b1111010111111000 ^
1"
#790000
0"
#795000
b1110110111110111 `
b1001111111010 i
1"
#800000
0"
b11000 $
b11000 0
b11000 9
b11000 T
b11000 ]
b11000 f
b100000 #
b100000 /
b100000 8
b100000 S
b100000 \
b100000 e
b11000 +
b100000 *
b100111 .
b100110 (
#805000
b10011110100011101001 4
b10011110100011101001 !"
b1001111111010 1
b1001111111010 @
b1001111111010 j
b1001111111010 n
b101111101000 h
b111111100000 g
b1111010000000000 _
b1111001010100000 ^
1"
#810000
0"
#815000
b1110011100011111 `
b1101101101011 i
1"
#820000
0"
b1001 $
b1001 0
b1001 9
b1001 T
b1001 ]
b1001 f
b100001 #
b100001 /
b100001 8
b100001 S
b100001 \
b100001 e
b1001 +
b100001 *
b101000 .
b100111 (
#825000
b11011001100111111000 4
b11011001100111111000 !"
b1101101101011 1
b1101101101011 @
b1101101101011 j
b1101101101011 n
b10001110111 h
b1000001011111 g
b1111101110000000 _
b1111001000110101 ^
1"
#830000
0"
#835000
b1110111000110100 `
b1010001111001 i
1"
#840000
0"
b10110 $
b10110 0
b10110 9
b10110 T
b10110 ]
b10110 f
b101000 #
b101000 /
b101000 8
b101000 S
b101000 \
b101000 e
b10110 +
b101000 *
b101001 .
b101000 (
#845000
b10100010011111101010 4
b10100010011111101010 !"
b1010001111001 1
b1010001111001 @
b1010001111001 j
b1010001111001 n
b101011101010 h
b1001111011000 g
b1111010100000000 _
b1110111101001000 ^
1"
#850000
0"
#855000
b1110010011000111 `
b1111001100101 i
1"
#860000
0"
b10011 $
b10011 0
b10011 9
b10011 T
b10011 ]
b10011 f
b10111 #
b10111 /
b10111 8
b10111 S
b10111 \
b10111 e
b10011 +
b10111 *
b101010 .
b101001 (
#865000
b11110001001111111110 4
b11110001001111111110 !"
b1111001100101 1
b1111001100101 @
b1111001100101 j
b1111001100101 n
b100101101101 h
b101101101001 g
b1111011010000000 _
b1111011001100011 ^
1"
#870000
0"
#875000
b1110110101100010 `
b1010001111001 i
1"
#880000
0"
b10101 $
b10101 0
b10101 9
b10101 T
b10101 ]
b10101 f
b101000 #
b101000 /
b101000 8
b101000 S
b101000 \
b101000 e
b10101 +
b101000 *
b101011 .
b101010 (
#885000
b10100010011111101010 4
b10100010011111101010 !"
b1010001111001 1
b1010001111001 @
b1010001111001 j
b1010001111001 n
b101001101011 h
b1001111011000 g
b1111010110000000 _
b1110111101001000 ^
1"
#890000
0"
#895000
b1110010101000111 `
b1110111100110 i
1"
#900000
0"
b111 $
b111 0
b111 9
b111 T
b111 ]
b111 f
b100011 #
b100011 /
b100011 8
b100011 S
b100011 \
b100011 e
b111 +
b100011 *
b101100 .
b101011 (
#905000
b11101101010011111101 4
b11101101010011111101 !"
b1110111100110 1
b1110111100110 @
b1110111100110 j
b1110111100110 n
b1101111001 h
b1000101011101 g
b1111110010000000 _
b1111000101011111 ^
1"
#910000
0"
#915000
b1110111001011110 `
b1010001111001 i
1"
#920000
0"
b1000 $
b1000 0
b1000 9
b1000 T
b1000 ]
b1000 f
b100110 #
b100110 /
b100110 8
b100110 S
b100110 \
b100110 e
b1000 +
b100110 *
b101101 .
b101100 (
#925000
b10100010011111101010 4
b10100010011111101010 !"
b1010001111001 1
b1010001111001 @
b1010001111001 j
b1010001111001 n
b1111111000 h
b1001011011010 g
b1111110000000000 _
b1111000000011110 ^
1"
#930000
0"
#935000
b1110110010011101 `
b1011001110101 i
1"
#940000
0"
b10000 $
b10000 0
b10000 9
b10000 T
b10000 ]
b10000 f
b1100 #
b1100 /
b1100 8
b1100 S
b1100 \
b1100 e
b10000 +
b1100 *
b101110 .
b101101 (
#945000
b10110010001111101110 4
b10110010001111101110 !"
b1011001110101 1
b1011001110101 @
b1011001110101 j
b1011001110101 n
b11111110000 h
b10111110100 g
b1111100000000000 _
b1111101011111100 ^
1"
#950000
0"
#955000
b1111001101111011 `
b110110000111 i
1"
#960000
0"
b100001 $
b100001 0
b100001 9
b100001 T
b100001 ]
b100001 f
b11001 #
b11001 /
b11001 8
b11001 S
b11001 \
b11001 e
b100001 +
b11001 *
b101111 .
b101110 (
#965000
b1101011010111011100 4
b1101011010111011100 !"
b110110000111 1
b110110000111 @
b110110000111 j
b110110000111 n
b1000001011111 h
b110001100111 g
b1110111110000000 _
b1111010110001101 ^
1"
#970000
0"
#975000
b1110010110001100 `
b1110001101001 i
1"
#980000
0"
b101 $
b101 0
b101 9
b101 T
b101 ]
b101 f
b110100 #
b110100 /
b110100 8
b110100 S
b110100 \
b110100 e
b101 +
b110100 *
b110000 .
b101111 (
#985000
b11100001011111111010 4
b11100001011111111010 !"
b1110001101001 1
b1110001101001 @
b1110001101001 j
b1110001101001 n
b1001111011 h
b1100111001100 g
b1111110110000000 _
b1110101001000100 ^
1"
#990000
0"
#995000
b1110100001000011 `
b1101111101010 i
1"
#1000000
0"
b100101 $
b100101 0
b100101 9
b100101 T
b100101 ]
b100101 f
b1000 #
b1000 /
b1000 8
b1000 S
b1000 \
b1000 e
b100101 +
b1000 *
b110001 .
b110000 (
#1005000
b11011101100011111001 4
b11011101100011111001 !"
b1101111101010 1
b1101111101010 @
b1101111101010 j
b1101111101010 n
b1001001011011 h
b1111111000 g
b1110110110000000 _
b1111110010101000 ^
1"
#1010000
0"
#1015000
b1110101010100111 `
b1010111110110 i
1"
#1020000
0"
b1101 $
b1101 0
b1101 9
b1101 T
b1101 ]
b1101 f
b110011 #
b110011 /
b110011 8
b110011 S
b110011 \
b110011 e
b1101 +
b110011 *
b110010 .
b110001 (
#1025000
b10101110010011101101 4
b10101110010011101101 !"
b1010111110110 1
b1010111110110 @
b1010111110110 j
b1010111110110 n
b11001110011 h
b1100101001101 g
b1111100110000000 _
b1110101010101111 ^
1"
#1030000
0"
#1035000
b1110010010101110 `
b1111101100011 i
1"
#1040000
0"
b10101 $
b10101 0
b10101 9
b10101 T
b10101 ]
b10101 f
b110010 #
b110010 /
b110010 8
b110010 S
b110010 \
b110010 e
b10101 +
b110010 *
b110011 .
b110010 (
#1045000
b11111001001000000000 4
b11111001001000000000 !"
b1111101100011 1
b1111101100011 @
b1111101100011 j
b1111101100011 n
b101001101011 h
b1100011001110 g
b1111010110000000 _
b1110101100011010 ^
1"
#1050000
0"
